Machine Learning and Men's NCAA Basketball Tournament - Kaitlynn Johnson's Sport Site
…
log_fit <- 
  log_workflow %>% 
  fit(data = log_train)

Now we will evaluate the fit:

trainpredict <- log_fit %>% predict(new_data = log_train) %>%
  bind_cols(log_train)

trainpredict

## # A tibble: 38,657 x 12
##    .pred_class Season Team  Date       Opponent Outcome Rolling_Mean_Po…
##    <fct>       <chr>  <chr> <date>     <chr>    <fct>              <dbl>
##  1 L           2014-… Abil… 2014-11-19 Tulsa    L                   79.6
##  2 L           2014-… Abil… 2014-11-22 Duquesne L                   71.9
##  3 L           2014-… Abil… 2014-11-29 UC-Rive… L                   71.9
##  4 L           2014-… Abil… 2014-12-04 Sacrame… W                   69.3
##  5 L           2014-… Abil… 2014-12-06 Houston  L                   65.7
##  6 L           2014-… Abil… 2014-12-17 Loyola … L                   66.5
##  7 L           2014-… Abil… 2014-12-23 Arkansa… W                   68.6
##  8 L           2014-… Abil… 2014-12-28 Grand C… L                   70.7
##  9 W           2014-… Abil… 2015-01-04 Central… W                   70.0
## 10 W           2014-… Abil… 2015-01-10 Nicholl… W                   70.9
## # … with 38,647 more rows, and 5 more variables: Rolling_Mean_PPP <dbl>,
## #   TeamSRS <dbl>, Opponent_Rolling_Mean_Possessions <dbl>,
## #   Opponent_Rolling_Mean_PPP <dbl>, OpponentSRS <dbl>

trainpredict <- log_fit %>% predict(new_data = log_train, type="prob") %>%
  bind_cols(trainpredict)

trainpredict

## # A tibble: 38,657 x 14
##    .pred_L .pred_W .pred_class Season Team  Date       Opponent Outcome
##      <dbl>   <dbl> <fct>       <chr>  <chr> <date>     <chr>    <fct>  
##  1   0.935  0.0652 L           2014-… Abil… 2014-11-19 Tulsa    L      
##  2   0.952  0.0483 L           2014-… Abil… 2014-11-22 Duquesne L      
##  3   0.891  0.109  L           2014-… Abil… 2014-11-29 UC-Rive… L      
##  4   0.897  0.103  L           2014-… Abil… 2014-12-04 Sacrame… W      
##  5   0.926  0.0744 L           2014-… Abil… 2014-12-06 Houston  L      
##  6   0.970  0.0305 L           2014-… Abil… 2014-12-17 Loyola … L      
##  7   0.503  0.497  L           2014-… Abil… 2014-12-23 Arkansa… W      
##  8   0.803  0.197  L           2014-… Abil… 2014-12-28 Grand C… L      
##  9   0.175  0.825  W           2014-… Abil… 2015-01-04 Central… W      
## 10   0.421  0.579  W           2014-… Abil… 2015-01-10 Nicholl… W      
## # … with 38,647 more rows, and 6 more variables:
## #   Rolling_Mean_Possessions <dbl>, Rolling_Mean_PPP <dbl>, TeamSRS <dbl>,
## #   Opponent_Rolling_Mean_Possessions <dbl>, Opponent_Rolling_Mean_PPP <dbl>,
## #   OpponentSRS <dbl>
…
Overall, the model seems to favor predicting a team will lose over wins; it is much more confident in saying it will be a loss than a win.

Now we will look at the test data:

Looking at test data

testpredict <- log_fit %>% predict(new_data = log_test) %>%
  bind_cols(log_test)

testpredict

## # A tibble: 9,663 x 12
##    .pred_class Season Team  Date       Opponent Outcome Rolling_Mean_Po…
##    <fct>       <chr>  <chr> <date>     <chr>    <fct>              <dbl>
##  1 W           2014-… Abil… 2014-12-22 South C… W                   67.4
##  2 L           2014-… Abil… 2015-03-05 Incarna… L                   79.2
##  3 L           2014-… Air … 2015-02-04 New Mex… W                   59.4
##  4 L           2014-… Air … 2015-02-21 Colorad… L                   64.3
##  5 W           2014-… Akron 2014-12-04 Western… W                   66.1
##  6 W           2014-… Akron 2015-01-06 Western… W                   69.5
##  7 L           2014-… Akron 2015-01-17 Central… W                   67.8
##  8 W           2014-… Akron 2015-03-09 Norther… W                   62.8
##  9 L           2014-… Alab… 2014-11-25 Jackson… L                   66.2
## 10 L           2014-… Alab… 2014-12-19 Marquet… L                   60.8
## # … with 9,653 more rows, and 5 more variables: Rolling_Mean_PPP <dbl>,
## #   TeamSRS <dbl>, Opponent_Rolling_Mean_Possessions <dbl>,
## #   Opponent_Rolling_Mean_PPP <dbl>, OpponentSRS <dbl>

testpredict <- log_fit %>% predict(new_data = log_test, type="prob") %>%
  bind_cols(testpredict)

testpredict

## # A tibble: 9,663 x 14
##    .pred_L .pred_W .pred_class Season Team  Date       Opponent Outcome
##      <dbl>   <dbl> <fct>       <chr>  <chr> <date>     <chr>    <fct>  
##  1  0.418   0.582  W           2014-… Abil… 2014-12-22 South C… W      
##  2  0.845   0.155  L           2014-… Abil… 2015-03-05 Incarna… L      
##  3  0.603   0.397  L           2014-… Air … 2015-02-04 New Mex… W      
##  4  0.847   0.153  L           2014-… Air … 2015-02-21 Colorad… L      
##  5  0.0463  0.954  W           2014-… Akron 2014-12-04 Western… W      
##  6  0.384   0.616  W           2014-… Akron 2015-01-06 Western… W      
##  7  0.635   0.365  L           2014-… Akron 2015-01-17 Central… W      
##  8  0.200   0.800  W           2014-… Akron 2015-03-09 Norther… W      
##  9  0.741   0.259  L           2014-… Alab… 2014-11-25 Jackson… L      
## 10  0.982   0.0183 L           2014-… Alab… 2014-12-19 Marquet… L      
## # … with 9,653 more rows, and 6 more variables: Rolling_Mean_Possessions <dbl>,
## #   Rolling_Mean_PPP <dbl>, TeamSRS <dbl>,
## #   Opponent_Rolling_Mean_Possessions <dbl>, Opponent_Rolling_Mean_PPP <dbl>,
## #   OpponentSRS <dbl>
…
